ST 558 Project 1, Group R
…
  res <- list(county_data = county_res, state_data = state_res)
  
  res
}

We now call our combine_data function to save the results of the prepared EDU01a and EDU01b data sets into a two-element list of dataframes, where each element of the list corresponds to combined county-level and state-level data.

census_data <- combine_data(census_edu01a, census_edu01b)

census_data

$county_data
# A tibble: 62,900 × 7
   area_name   STCOU name       enrollment measurement  year state
   <chr>       <chr> <chr>           <dbl> <chr>       <int> <chr>
 1 Autauga, AL 01001 EDU010187D       6829 EDU0101      1987 AL   
 2 Autauga, AL 01001 EDU010188D       6900 EDU0101      1988 AL   
 3 Autauga, AL 01001 EDU010189D       6920 EDU0101      1989 AL   
 4 Autauga, AL 01001 EDU010190D       6847 EDU0101      1990 AL   
 5 Autauga, AL 01001 EDU010191D       7008 EDU0101      1991 AL   
 6 Autauga, AL 01001 EDU010192D       7137 EDU0101      1992 AL   
 7 Autauga, AL 01001 EDU010193D       7152 EDU0101      1993 AL   
 8 Autauga, AL 01001 EDU010194D       7381 EDU0101      1994 AL   
 9 Autauga, AL 01001 EDU010195D       7568 EDU0101      1995 AL   
10 Autauga, AL 01001 EDU010196D       7834 EDU0101      1996 AL   
# ℹ 62,890 more rows

$state_data
# A tibble: 1,060 × 7
   area_name     STCOU name       enrollment measurement  year division
   <chr>         <chr> <chr>           <dbl> <chr>       <int> <chr>   
 1 UNITED STATES 00000 EDU010187D   40024299 EDU0101      1987 ERROR   
 2 UNITED STATES 00000 EDU010188D   39967624 EDU0101      1988 ERROR   
 3 UNITED STATES 00000 EDU010189D   40317775 EDU0101      1989 ERROR   
 4 UNITED STATES 00000 EDU010190D   40737600 EDU0101      1990 ERROR   
 5 UNITED STATES 00000 EDU010191D   41385442 EDU0101      1991 ERROR   
 6 UNITED STATES 00000 EDU010192D   42088151 EDU0101      1992 ERROR   
 7 UNITED STATES 00000 EDU010193D   42724710 EDU0101      1993 ERROR   
 8 UNITED STATES 00000 EDU010194D   43369917 EDU0101      1994 ERROR   
 9 UNITED STATES 00000 EDU010195D   43993459 EDU0101      1995 ERROR   
10 UNITED STATES 00000 EDU010196D   44715737 EDU0101      1996 ERROR   
# ℹ 1,050 more rows
…
ℹ Use `spec()` to retrieve the full column specification for this data.
ℹ Specify the column types or set `show_col_types = FALSE` to quiet this message.

Data combining

Now that we have converted the raw data into usable tibbles we can process them through our combine_data function to generate the census_data object.

census_data <- combine_data(census_edu01a, census_edu01b)

census_data

$county_data
# A tibble: 62,900 × 7
   area_name   STCOU name       enrollment measurement  year state
   <chr>       <chr> <chr>           <dbl> <chr>       <int> <chr>
 1 Autauga, AL 01001 EDU010187D       6829 EDU0101      1987 AL   
 2 Autauga, AL 01001 EDU010188D       6900 EDU0101      1988 AL   
 3 Autauga, AL 01001 EDU010189D       6920 EDU0101      1989 AL   
 4 Autauga, AL 01001 EDU010190D       6847 EDU0101      1990 AL   
 5 Autauga, AL 01001 EDU010191D       7008 EDU0101      1991 AL   
 6 Autauga, AL 01001 EDU010192D       7137 EDU0101      1992 AL   
 7 Autauga, AL 01001 EDU010193D       7152 EDU0101      1993 AL   
 8 Autauga, AL 01001 EDU010194D       7381 EDU0101      1994 AL   
 9 Autauga, AL 01001 EDU010195D       7568 EDU0101      1995 AL   
10 Autauga, AL 01001 EDU010196D       7834 EDU0101      1996 AL   
# ℹ 62,890 more rows

$state_data
# A tibble: 1,060 × 7
   area_name     STCOU name       enrollment measurement  year division
   <chr>         <chr> <chr>           <dbl> <chr>       <int> <chr>   
 1 UNITED STATES 00000 EDU010187D   40024299 EDU0101      1987 ERROR   
 2 UNITED STATES 00000 EDU010188D   39967624 EDU0101      1988 ERROR   
 3 UNITED STATES 00000 EDU010189D   40317775 EDU0101      1989 ERROR   
 4 UNITED STATES 00000 EDU010190D   40737600 EDU0101      1990 ERROR   
 5 UNITED STATES 00000 EDU010191D   41385442 EDU0101      1991 ERROR   
 6 UNITED STATES 00000 EDU010192D   42088151 EDU0101      1992 ERROR   
 7 UNITED STATES 00000 EDU010193D   42724710 EDU0101      1993 ERROR   
 8 UNITED STATES 00000 EDU010194D   43369917 EDU0101      1994 ERROR   
 9 UNITED STATES 00000 EDU010195D   43993459 EDU0101      1995 ERROR   
10 UNITED STATES 00000 EDU010196D   44715737 EDU0101      1996 ERROR   
# ℹ 1,050 more rows
…
